[
  {
    "name": "news",
    "data": "Latest News"
  },
  {
    "name": "books",
    "data": "Read Books"
  },
  {
    "name": "quotes",
    "data": "Quotes"
  },
  {
    "name": "entertainment",
    "data": "Entertainment"
  },
  {
    "name": "movies",
    "data": "Movies"
  },
  {
    "name": "developer",
    "data": "Developer"
  },
  {
    "name": "hotels",
    "data": "Book Hotels"
  },
  {
    "name": "education",
    "data": "Education"
  },
  {
    "name": "food",
    "data": "Food"
  },
  {
    "name": "cricket",
    "data": "Cricket Scores"
  },
  {
    "name": "chat",
    "data": "Chat"
  },
  {
    "name": "weather",
    "data": "Weather"
  }
]
